{
    "$schema": "http://bigcontent.io/cms/schema/v1/schema#",
    "id": "https://bitbucket.org/dreamsltd/amplience-templates/raw/master/about-dreams-financials-table-card.json",
    "allOf": [
        {
            "$ref": "http://bigcontent.io/cms/schema/v1/core#/definitions/content"
        }
    ],
    "title": "about-dreams-financials-table-card",
    "description": "about-dreams-financials-table-card",
    "type": "object",
    "properties": {
        "financial-data-year": {
            "allOf": [
                {
                    "$ref": "https://bitbucket.org/dreamsltd/amplience-templates/raw/master/lib/title.json#"
                },
                {
                    "type": "object",
                    "title": "Title",
                    "description": ""
                }
            ]
        },
        "sales-data": {
            "allOf": [
                {
                    "$ref": "https://bitbucket.org/dreamsltd/amplience-templates/raw/master/lib/text.json#"
                },
                {
                    "type": "object",
                    "title": "sales-data",
                    "description": ""
                }
            ]
        },
        "ebitda-data": {
            "allOf": [
                {
                    "$ref": "https://bitbucket.org/dreamsltd/amplience-templates/raw/master/lib/text.json#"
                },
                {
                    "type": "object",
                    "title": "ebitda-data",
                    "description": ""
                }
            ]
        },
        "lfl-sales-growth-data": {
            "allOf": [
                {
                    "$ref": "https://bitbucket.org/dreamsltd/amplience-templates/raw/master/lib/text.json#"
                },
                {
                    "type": "object",
                    "title": "lfl-sales-growth-data",
                    "description": ""
                }
            ]
        }
    },
    "propertyOrder": [
        "financial-data-year",
        "sales-data",
        "ebitda-data",
        "lfl-sales-growth-data"
    ]
}