{
    "$schema": "http://bigcontent.io/cms/schema/v1/schema#",
    "id": "https://bitbucket.org/dreamsltd/amplience-templates/raw/master/affiliate-programme-cta.json",
    "allOf": [
        {
            "$ref": "http://bigcontent.io/cms/schema/v1/core#/definitions/content"
        }
    ],
    "title": "Affiliate-programme-cta",
    "description": "affiliate-programme-cta",
    "type": "object",
    "properties": {
        "content-type": {
            "type": "string",
            "enum": [
                "affiliate-programme-cta"
            ],
            "title": "Please-select-content-type",
            "description": ""
        },
        "cta-background-color": {
            "type": "string",
            "enum": [
                "Blue",
                "Pink"
            ],
            "title": "Cta-background-color",
            "description": "Please-select-a-background-color"
        },
        "thumbnail-image": {
            "allOf": [
                {
                    "$ref": "https://bitbucket.org/dreamsltd/amplience-templates/raw/master/lib/media-type.json#"
                },
                {
                    "type": "object",
                    "title": "Please-add-a-thumbnail-image",
                    "description": ""
                }
            ]
        },
        "cta-regular": {
            "type": "string",
            "minLength": 0,
            "maxLength": 60,
            "title": "Call-to-action-regular-text",
            "description": "Please-enter-a-call-to-action-regular-text"
        },
        "cta-bold": {
            "type": "string",
            "minLength": 0,
            "maxLength": 60,
            "title": "Call-to-action-bold-text",
            "description": "Please-enter-a-call-to-action-bold-text"
        },
        "cta-icon": {
            "allOf": [
                {
                    "$ref": "https://bitbucket.org/dreamsltd/amplience-templates/raw/master/lib/media-type.json#"
                },
                {
                    "type": "object",
                    "title": "Please-add-a-cta-icon",
                    "description": ""
                }
            ]
        },
        "button-text": {
            "type": "string",
            "minLength": 5,
            "maxLength": 40,
            "title": "Button-Text",
            "description": "",
            "errors": {
                "maxLength": "Please-enter-between-5-and-40-characters",
                "minLength": "Please-enter-between-5-and-40-characters"
            }
        },
        "url": {
            "type": "string",
            "title": "Please-enter-a-banner-link",
            "description": ""
        }
    },
    "propertyOrder": [
        "content-type",
        "cta-background-color",
        "thumbnail-image",
        "cta-regular",
        "cta-bold",
        "cta-icon",
        "button-text",
        "url"
    ]
}