{
    "$schema": "http://bigcontent.io/cms/schema/v1/schema#",
    "id": "https://bitbucket.org/dreamsltd/amplience-templates/raw/master/amp-dynamic-article-cards.json",
    "allOf": [
        {
            "$ref": "http://bigcontent.io/cms/schema/v1/core#/definitions/content"
        }
    ],
    "title": "amp-dynamic-article-cards",
    "description": "amp-dynamic-article-cards",
    "type": "object",
    "properties": {
        "content-type": {
            "type": "string",
            "enum": [
                "amp-dynamic-article-cards"
            ],
            "title": "Select-content-type",
            "description": ""
        },
        "amp-dynamic-article-card": {
            "type": "array",
            "items": {
                "allOf": [
                    {
                        "$ref": "http://bigcontent.io/cms/schema/v1/core#/definitions/content-link"
                    },
                    {
                        "properties": {
                            "contentType": {
                                "enum": [
                                    "https://bitbucket.org/dreamsltd/amplience-templates/raw/master/amp-dynamic-article-card.json"
                                ]
                            }
                        }
                    }
                ]
            },
            "title": "amp-dynamic-article-card",
            "description": ""
        }
    },
    "propertyOrder": [
        "content-type",
        "amp-dynamic-article-card"
    ]
}