{
    "$schema": "http://bigcontent.io/cms/schema/v1/schema#",
    "id": "https://bitbucket.org/dreamsltd/amplience-templates/raw/master/background-content.json",
    "allOf": [
        {
            "$ref": "http://bigcontent.io/cms/schema/v1/core#/definitions/content"
        }
    ],
    "title": "Background-Content",
    "description": "image-or-video-background",
    "type": "object",
    "properties": {
        "Content": {
            "type": "array",
            "items": {
                "allOf": [
                    {
                        "$ref": "http://bigcontent.io/cms/schema/v1/core#/definitions/content-link"
                    },
                    {
                        "properties": {
                            "contentType": {
                                "enum": [
                                    "https://bitbucket.org/dreamsltd/amplience-templates/raw/master/video-url.json",
                                    "https://bitbucket.org/dreamsltd/amplience-templates/raw/master/image.json",
                                    "https://bitbucket.org/dreamsltd/amplience-templates/raw/master/image-url.json"
                                ]
                            }
                        }
                    }
                ]
            },
            "minItems": 1,
            "maxItems": 1,
            "title": "Desktop background content type",
            "description": "Choose video, image or Url"
        },
        "mobile-image-boolean": {
            "type": "boolean",
            "title": "Use-a-different-image-on-mobile",
            "description": ""
        },
        "Mobile-content": {
            "type": "array",
            "items": {
                "allOf": [
                    {
                        "$ref": "http://bigcontent.io/cms/schema/v1/core#/definitions/content-link"
                    },
                    {
                        "properties": {
                            "contentType": {
                                "enum": [
                                    "https://bitbucket.org/dreamsltd/amplience-templates/raw/master/video-url.json",
                                    "https://bitbucket.org/dreamsltd/amplience-templates/raw/master/image.json",
                                    "https://bitbucket.org/dreamsltd/amplience-templates/raw/master/image-url.json"
                                ]
                            }
                        }
                    }
                ]
            },
            "minItems": 0,
            "maxItems": 1,
            "title": "Mobile background content type",
            "description": "Choose video, image or Url"
        }
    },
    "propertyOrder": [
        "Content",
        "mobile-image-boolean",
        "Mobile-content"
    ]
}