{
    "$schema": "http://bigcontent.io/cms/schema/v1/schema#",
    "id": "https://bitbucket.org/dreamsltd/amplience-templates/raw/master/badge.json",
    "allOf": [
        {
            "$ref": "http://bigcontent.io/cms/schema/v1/core#/definitions/content"
        }
    ],
    "title": "Badge",
    "description": "Badge",
    "type": "object",
    "properties": {
        "Badge-type": {
            "type": "array",
            "items": {
                "allOf": [
                    {
                        "$ref": "http://bigcontent.io/cms/schema/v1/core#/definitions/content-link"
                    },
                    {
                        "properties": {
                            "contentType": {
                                "enum": [
                                    "https://bitbucket.org/dreamsltd/amplience-templates/raw/master/image.json",
                                    "https://bitbucket.org/dreamsltd/amplience-templates/raw/master/text.json"
                                ]
                            }
                        }
                    }
                ]
            },
            "minItems": 1,
            "maxItems": 1,
            "title": "Choose-badge-type",
            "description": ""
        },
        "badge-background-colour": {
            "type": "string",
            "minLength": 7,
            "maxLength": 7,
            "title": "Badge-background-colour",
            "description": "Use-hex-value",
            "errors": {
                "maxLength": "7-characters-needed",
                "minLength": "7-characters-needed"
            }
        },
        "badge-text-colour": {
            "type": "string",
            "minLength": 7,
            "maxLength": 7,
            "title": "Badge-text-colour",
            "description": "Use-hex-value",
            "errors": {
                "maxLength": "7-characters-needed",
                "minLength": "7-characters-needed"
            }
        },
        "badge-position": {
            "type": "string",
            "enum": [
                "top-left",
                "top-right",
                "bottom-left",
                "bottom-right",
                "center"
            ],
            "title": "badge-position",
            "description": ""
        }
    },
    "propertyOrder": [
        "Badge-type",
        "badge-background-colour",
        "badge-text-colour",
        "badge-position"
    ]
}