{
    "$schema": "http://bigcontent.io/cms/schema/v1/schema#",
    "id": "https://bitbucket.org/dreamsltd/amplience-templates/raw/master/bed-and-mattress-guide-landing-page.json",
    "allOf": [
        {
            "$ref": "http://bigcontent.io/cms/schema/v1/core#/definitions/content"
        }
    ],
    "title": "Bed-and-mattress-guide-landing-page",
    "description": "Bed-and-mattress-guide-landing-page",
    "type": "object",
    "properties": {
        "category-title": {
            "type": "object",
            "allOf": [
                {
                    "$ref": "http://bigcontent.io/cms/schema/v1/core#/definitions/content-link"
                },
                {
                    "properties": {
                        "contentType": {
                            "enum": [
                                "https://bitbucket.org/dreamsltd/amplience-templates/raw/master/title.json"
                            ]
                        }
                    }
                }
            ],
            "title": "Title",
            "description": ""
        },
        "content-type": {
            "type": "string",
            "enum": [
                "page-rows"
            ],
            "title": "Select-content-type",
            "description": ""
        },
        "page-rows": {
            "type": "array",
            "items": {
                "allOf": [
                    {
                        "$ref": "http://bigcontent.io/cms/schema/v1/core#/definitions/content-link"
                    },
                    {
                        "properties": {
                            "contentType": {
                                "enum": [
                                    "https://bitbucket.org/dreamsltd/amplience-templates/raw/master/bed-and-mattress-guide-landing-page-row.json"
                                ]
                            }
                        }
                    }
                ]
            },
            "minItems": 1,
            "maxItems": 40,
            "title": "Bed-and-mattress-guide-landing-page-rows",
            "description": "Bed-and-mattress-guide-landing-page-rows"
        },
        "bed-and-mattress-guide-landing-page-article-rows": {
            "type": "object",
            "allOf": [
                {
                    "$ref": "http://bigcontent.io/cms/schema/v1/core#/definitions/content-link"
                },
                {
                    "properties": {
                        "contentType": {
                            "enum": [
                                "https://bitbucket.org/dreamsltd/amplience-templates/raw/master/bed-and-mattress-guide-landing-page-articles-row.json"
                            ]
                        }
                    }
                }
            ],
            "title": "Landing-page-articles-container",
            "description": "choose-an-article-container"
        }
    },
    "propertyOrder": [
        "category-title",
        "content-type",
        "page-rows",
        "bed-and-mattress-guide-landing-page-article-rows"
    ]
}