{
    "$schema": "http://bigcontent.io/cms/schema/v1/schema#",
    "id": "https://bitbucket.org/dreamsltd/amplience-templates/raw/master/bedbuilder-video-card.json",
    "allOf": [
        {
            "$ref": "http://bigcontent.io/cms/schema/v1/core#/definitions/content"
        }
    ],
    "title": "bedbuilder-video-card",
    "description": "Individual article placeholders on landing pages",
    "type": "object",
    "properties": {
        "content-type": {
            "type": "string",
            "enum": [
                "bedbuilder-video-card"
            ],
            "title": "Please-select-content-type",
            "description": ""
        },
        "bedbuilder-desktop-video": {
            "type": "object",
            "allOf": [
                {
                    "$ref": "http://bigcontent.io/cms/schema/v1/core#/definitions/video-link"
                }
            ],
            "title": "Please-choose-desktop-video",
            "description": "Please-choose-desktop-video"
        },
        "bedbuilder-mobile-video": {
            "type": "object",
            "allOf": [
                {
                    "$ref": "http://bigcontent.io/cms/schema/v1/core#/definitions/video-link"
                }
            ],
            "title": "Please-choose-mobile-video",
            "description": "Please-choose-mobile-video"
        },
        "video-title": {
            "allOf": [
                {
                    "$ref": "https://bitbucket.org/dreamsltd/amplience-templates/raw/master/lib/title.json#"
                },
                {
                    "type": "object",
                    "title": "Please-enter-a-title-for-video",
                    "description": "Please-enter-a-title-for-video"
                }
            ]
        },
        "video-text": {
            "allOf": [
                {
                    "$ref": "https://bitbucket.org/dreamsltd/amplience-templates/raw/master/lib/text.json#"
                },
                {
                    "type": "object",
                    "title": "text",
                    "description": "Please-enter-the-text-for-video"
                }
            ]
        },
        "play-button-image": {
            "type": "string",
            "minLength": 1,
            "maxLength": 1000,
            "title": "Please-add-image-as-a-play-button",
            "description": ""
        },
        "play-button-image-alt": {
            "type": "string",
            "minLength": 1,
            "maxLength": 200,
            "title": "Please-add-play-button-alt-text",
            "description": ""
        }
    },
    "propertyOrder": [
        "content-type",
        "bedbuilder-desktop-video",
        "bedbuilder-mobile-video",
        "video-title",
        "video-text",
        "play-button-image",
        "play-button-image-alt"
    ]
}