{
    "$schema": "http://bigcontent.io/cms/schema/v1/schema#",
    "id": "https://bitbucket.org/dreamsltd/amplience-templates/raw/master/black-friday-product-card.json",
    "allOf": [
        {
            "$ref": "http://bigcontent.io/cms/schema/v1/core#/definitions/content"
        }
    ],
    "title": "black-friday-product-card",
    "description": "black-friday-product-card",
    "type": "object",
    "properties": {
        "content-type": {
            "type": "string",
            "enum": [
                "black-friday-product-card"
            ],
            "title": "Please-select-content-type",
            "description": ""
        },
        "card-url": {
            "type": "string",
            "title": "Please-enter-card-url",
            "description": ""
        },
        "image": {
            "type": "object",
            "allOf": [
                {
                    "$ref": "http://bigcontent.io/cms/schema/v1/core#/definitions/content-link"
                },
                {
                    "properties": {
                        "contentType": {
                            "enum": [
                                "https://bitbucket.org/dreamsltd/amplience-templates/raw/master/image-url.json"
                            ]
                        }
                    }
                }
            ],
            "title": "Please-add-an-image",
            "description": "Please-add-an-image"
        },
        "product-title": {
            "type": "string",
            "title": "Please-enter-the-title-of-the-product",
            "description": ""
        },
        "star-rating": {
            "type": "string",
            "enum": [
                "5",
                "4",
                "3",
                "2",
                "1"
            ],
            "title": "Please-enter-a-star-rating",
            "description": ""
        },
        "sale-price-text": {
            "type": "string",
            "title": "Please-enter-the-full-text-for-sale-price",
            "description": ""
        },
        "text-badge": {
            "type": "string",
            "title": "Please-enter-text-for-green-badge",
            "description": ""
        },
        "image-badge": {
            "type": "object",
            "allOf": [
                {
                    "$ref": "http://bigcontent.io/cms/schema/v1/core#/definitions/content-link"
                },
                {
                    "properties": {
                        "contentType": {
                            "enum": [
                                "https://bitbucket.org/dreamsltd/amplience-templates/raw/master/image-url.json"
                            ]
                        }
                    }
                }
            ],
            "title": "Please-enter-an-image-badge",
            "description": "image-or-logo-for-top-left-of-the-card"
        }
    },
    "propertyOrder": [
        "content-type",
        "card-url",
        "image",
        "product-title",
        "star-rating",
        "sale-price-text",
        "text-badge",
        "image-badge"
    ]
}