{
    "$schema": "http://bigcontent.io/cms/schema/v1/schema#",
    "id": "https://bitbucket.org/dreamsltd/amplience-templates/raw/master/brands-text-title.json",
    "allOf": [
        {
            "$ref": "http://bigcontent.io/cms/schema/v1/core#/definitions/content"
        }
    ],
    "title": "brands-text-title",
    "description": "brands-text-title",
    "type": "object",
    "properties": {
        "content-type": {
            "type": "string",
            "enum": [
                "brands-text-title"
            ],
            "title": "Please-define-your-data-type",
            "description": "Please-define-your-data-type"
        },
        "title": {
            "type": "string",
            "minLength": 1,
            "maxLength": 100,
            "title": "Please-add-title",
            "description": "Please-add-title"
        },
        "text": {
            "type": "string",
            "minLength": 1,
            "maxLength": 2000,
            "title": "Please-add-the-text",
            "description": "Min-charachters-1-max-2000",
            "errors": {
                "maxLength": "Text-can-not-be-empty",
                "minLength": "Text-can-not-be-empty"
            }
        }
    },
    "propertyOrder": [
        "content-type",
        "title",
        "text"
    ]
}