{
    "$schema": "http://bigcontent.io/cms/schema/v1/schema#",
    "id": "https://bitbucket.org/dreamsltd/amplience-templates/raw/master/buying-guide-landing-page.json",
    "allOf": [
        {
            "$ref": "http://bigcontent.io/cms/schema/v1/core#/definitions/content"
        }
    ],
    "title": "Buying-guide-landing-page",
    "description": "Buying-guide-landing-page",
    "type": "object",
    "properties": {
        "category-title": {
            "type": "object",
            "allOf": [
                {
                    "$ref": "http://bigcontent.io/cms/schema/v1/core#/definitions/content-link"
                },
                {
                    "properties": {
                        "contentType": {
                            "enum": [
                                "https://bitbucket.org/dreamsltd/amplience-templates/raw/master/title.json"
                            ]
                        }
                    }
                }
            ],
            "title": "Title",
            "description": ""
        },
        "content-type": {
            "type": "string",
            "enum": [
                "buying-guides-landing-page-rows"
            ],
            "title": "Select-content-type",
            "description": ""
        },
        "buying-guides-landing-page-rows": {
            "type": "object",
            "allOf": [
                {
                    "$ref": "http://bigcontent.io/cms/schema/v1/core#/definitions/content-link"
                },
                {
                    "properties": {
                        "contentType": {
                            "enum": [
                                "https://bitbucket.org/dreamsltd/amplience-templates/raw/master/buying-guide-landing-page-row.json"
                            ]
                        }
                    }
                }
            ],
            "title": "Article-container",
            "description": "choose-an-article-container"
        }
    },
    "propertyOrder": [
        "category-title",
        "content-type",
        "buying-guides-landing-page-rows"
    ]
}