{
    "$schema": "http://bigcontent.io/cms/schema/v1/schema#",
    "id": "https://bitbucket.org/dreamsltd/amplience-templates/raw/master/card-hotspot.json",
    "allOf": [
        {
            "$ref": "http://bigcontent.io/cms/schema/v1/core#/definitions/content"
        }
    ],
    "title": "card-hotspot",
    "description": "card-hotspot",
    "type": "object",
    "properties": {
        "content-type": {
            "type": "string",
            "enum": [
                "card-hotspot"
            ],
            "title": "Select-content-type",
            "description": ""
        },
        "hotspot-x-coordinate": {
            "type": "number",
            "minimum": 0,
            "maximum": 1,
            "title": "card-x-coordinate",
            "description": "Please-enter-a-value-for-the-x-coordinate"
        },
        "hotspot-y-coordinate": {
            "type": "number",
            "minimum": 0,
            "maximum": 1,
            "title": "card-y-coordinate",
            "description": "Please-enter-a-value-for-the-y-coordinate"
        },
        "hotspot-alt-text": {
            "type": "string",
            "minLength": 2,
            "maxLength": 60,
            "title": "Hotspot-alt-text",
            "description": "Please-enter-the-hotspot-alt-text"
        },
        "tooltip-title": {
            "type": "string",
            "minLength": 2,
            "maxLength": 60,
            "title": "Title",
            "description": "Please-enter-a-tooltip-title"
        },
        "include-tooltip-title": {
            "type": "boolean",
            "title": "Include-toolitp-title",
            "description": ""
        },
        "tooltip-text": {
            "type": "string",
            "minLength": 5,
            "maxLength": 300,
            "title": "Please-enter-the-tooltip-text",
            "description": ""
        }
    },
    "propertyOrder": [
        "content-type",
        "hotspot-x-coordinate",
        "hotspot-y-coordinate",
        "hotspot-alt-text",
        "tooltip-title",
        "include-tooltip-title",
        "tooltip-text"
    ]
}