{
    "$schema": "http://bigcontent.io/cms/schema/v1/schema#",
    "id": "https://bitbucket.org/dreamsltd/amplience-templates/raw/master/cookie-policy-wrapper.json",
    "allOf": [
        {
            "$ref": "http://bigcontent.io/cms/schema/v1/core#/definitions/content"
        }
    ],
    "title": "cookie-policy-wrapper",
    "description": "cookie-policy-wrapper",
    "type": "object",
    "properties": {
        "content-type": {
            "type": "string",
            "enum": [
                "cookie-policy-wrapper"
            ],
            "title": "Please-select-content-type",
            "description": ""
        },
        "cookie-policy-wrapper": {
            "type": "array",
            "items": {
                "allOf": [
                    {
                        "$ref": "http://bigcontent.io/cms/schema/v1/core#/definitions/content-link"
                    },
                    {
                        "properties": {
                            "contentType": {
                                "enum": [
                                    "https://bitbucket.org/dreamsltd/amplience-templates/raw/master/privacy-policy-cookies.json"
                                ]
                            }
                        }
                    }
                ]
            },
            "minItems": 2,
            "maxItems": 65,
            "title": "Cookie-policy-wrapper",
            "description": ""
        }
    },
    "propertyOrder": [
        "content-type",
        "cookie-policy-wrapper"
    ]
}