{
    "$schema": "http://bigcontent.io/cms/schema/v1/schema#",
    "id": "https://bitbucket.org/dreamsltd/amplience-templates/raw/master/dynamic-video-url.json",
    "allOf": [
        {
            "$ref": "http://bigcontent.io/cms/schema/v1/core#/definitions/content"
        }
    ],
    "title": "dynamic-video-url",
    "description": "dynamic-video-url",
    "type": "object",
    "template": "video-uri",
    "properties": {
        "content-type": {
            "type": "string",
            "enum": [
                "dynamic-video-url"
            ],
            "title": "Select-content-type",
            "description": ""
        },
        "dynamic-video-url": {
            "type": "string",
            "title": "dynamic-video-url",
            "description": ""
        },
        "dynamic-image": {
            "type": "string",
            "minLength": 4,
            "maxLength": 400,
            "title": "Please-define-your-image-name",
            "description": "",
            "errors": {
                "maxLength": "<validation message>",
                "minLength": "<validation message>"
            }
        },
        "desktop-crop": {
            "type": "string",
            "minLength": 2,
            "maxLength": 6000,
            "title": "Please-define-your-desktop-crop-parameter",
            "description": ""
        },
        "tablet-crop": {
            "type": "string",
            "minLength": 2,
            "maxLength": 6000,
            "title": "Please-define-your-tablet-crop-parameter",
            "description": ""
        },
        "mobile-crop": {
            "type": "string",
            "minLength": 2,
            "maxLength": 6000,
            "title": "Please-define-your-mobile-crop-parameter",
            "description": ""
        },
        "alt-text": {
            "type": "string",
            "minLength": 10,
            "maxLength": 300,
            "title": "Alt-Text",
            "description": "",
            "errors": {
                "maxLength": "Please-enter-between-10-and-300-characters",
                "minLength": "Please-enter-between-10-and-300-characters"
            }
        }
    },
    "propertyOrder": [
        "content-type",
        "dynamic-video-url",
        "dynamic-image",
        "desktop-crop",
        "tablet-crop",
        "mobile-crop",
        "alt-text"
    ]
}