{
    "$schema": "http://bigcontent.io/cms/schema/v1/schema#",
    "id": "https://bitbucket.org/dreamsltd/amplience-templates/raw/master/fostering-network-masonry-cards.json",
    "allOf": [
        {
            "$ref": "http://bigcontent.io/cms/schema/v1/core#/definitions/content"
        }
    ],
    "title": "fostering-network-masonry-cards",
    "description": "fostering-network-masonry-cards",
    "type": "object",
    "properties": {
        "content-type": {
            "type": "string",
            "enum": [
                "fostering-network-masonry-cards"
            ],
            "title": "Please-select-content-type",
            "description": ""
        },
        "fostering-network-masonry-cards": {
            "type": "array",
            "items": {
                "allOf": [
                    {
                        "$ref": "http://bigcontent.io/cms/schema/v1/core#/definitions/content-link"
                    },
                    {
                        "properties": {
                            "contentType": {
                                "enum": [
                                    "https://bitbucket.org/dreamsltd/amplience-templates/raw/master/fostering-network-masonry-card.json"
                                ]
                            }
                        }
                    }
                ]
            },
            "minItems": 3,
            "maxItems": 15,
            "title": "fostering-network-masonry-card",
            "description": ""
        },
        "view-more-button-text": {
            "type": "string",
            "minLength": 4,
            "maxLength": 40,
            "title": "Button-text",
            "description": "",
            "errors": {
                "maxLength": "Please-enter-between-4-and-40-characters",
                "minLength": "Please-enter-between-4-and-40-characters"
            }
        },
        "view-more-button-url": {
            "type": "string",
            "title": "Please-enter-the-button-url",
            "description": ""
        }
    },
    "propertyOrder": [
        "content-type",
        "fostering-network-masonry-cards",
        "view-more-button-text",
        "view-more-button-url"
    ]
}