{
    "$schema": "http://bigcontent.io/cms/schema/v1/schema#",
    "id": "https://bitbucket.org/dreamsltd/amplience-templates/raw/master/fostering-network-landing-page-block.json",
    "allOf": [
        {
            "$ref": "http://bigcontent.io/cms/schema/v1/core#/definitions/content"
        }
    ],
    "title": "fostering-network-landing-page-block",
    "description": "fostering-network-landing-page-block",
    "type": "object",
    "properties": {
        "content-type": {
            "type": "string",
            "enum": [
                "page-block"
            ],
            "title": "Select-content-type",
            "description": ""
        },
        "block-style": {
            "type": "string",
            "enum": [
                "full-width",
                "semi",
                "page-rows"
            ],
            "title": "block-style",
            "description": ""
        },
        "page-block": {
            "type": "array",
            "items": {
                "allOf": [
                    {
                        "$ref": "http://bigcontent.io/cms/schema/v1/core#/definitions/content-link"
                    },
                    {
                        "properties": {
                            "contentType": {
                                "enum": [
                                    "https://bitbucket.org/dreamsltd/amplience-templates/raw/master/media-type.json",
                                    "https://bitbucket.org/dreamsltd/amplience-templates/raw/master/amp-dynamic-article-cards.json",
                                    "https://bitbucket.org/dreamsltd/amplience-templates/raw/master/fostering-network-donations-wrapper.json",
                                    "https://bitbucket.org/dreamsltd/amplience-templates/raw/master/fostering-network-fundraising-wrapper.json",
                                    "https://bitbucket.org/dreamsltd/amplience-templates/raw/master/fostering-network-masonry-cards.json",
                                    "https://bitbucket.org/dreamsltd/amplience-templates/raw/master/fostering-network-more-about-cards-container.json",
                                    "https://bitbucket.org/dreamsltd/amplience-templates/raw/master/fostering-network-social-banner.json"
                                ]
                            }
                        }
                    }
                ]
            },
            "minItems": 1,
            "maxItems": 1,
            "title": "Page-block",
            "description": ""
        }
    },
    "propertyOrder": [
        "content-type",
        "block-style",
        "page-block"
    ]
}