{
    "$schema": "http://bigcontent.io/cms/schema/v1/schema#",
    "id": "https://bitbucket.org/dreamsltd/amplience-templates/raw/master/homepage-hero-block-b.json",
    "allOf": [
        {
            "$ref": "http://bigcontent.io/cms/schema/v1/core#/definitions/content"
        }
    ],
    "title": "homepage-hero-block-b",
    "description": "homepage-hero-block-b",
    "type": "object",
    "properties": {
        "content-type": {
            "type": "string",
            "enum": [
                "homepage-hero-block-b"
            ],
            "title": "Please-select-content-type",
            "description": ""
        },
        "hero-background-colour": {
            "type": "string",
            "minLength": 7,
            "maxLength": 7,
            "title": "Please-enter-banner-background-colour",
            "description": "Must-be-hex-value",
            "errors": {
                "maxLength": "Must-be-7-characters-long",
                "minLength": "Must-be-7-characters-long"
            }
        },
        "hero-image": {
            "allOf": [
                {
                    "$ref": "https://bitbucket.org/dreamsltd/amplience-templates/raw/master/lib/media-type.json#"
                },
                {
                    "type": "object",
                    "title": "Please-add-hero-image",
                    "description": ""
                }
            ]
        },
        "hero-image-url": {
            "type": "string",
            "minLength": 0,
            "title": "Please-add-url-for-hero-image",
            "description": ""
        },
        "hero-divider-text": {
            "type": "array",
            "items": {
                "allOf": [
                    {
                        "$ref": "http://bigcontent.io/cms/schema/v1/core#/definitions/content-link"
                    },
                    {
                        "properties": {
                            "contentType": {
                                "enum": [
                                    "https://bitbucket.org/dreamsltd/amplience-templates/raw/master/homepage-hero-text-partial.json"
                                ]
                            }
                        }
                    }
                ]
            },
            "minItems": 0,
            "maxItems": 20,
            "title": "Please-add-hero-divider-text-blocks",
            "description": "Please-add-hero-divider-text-blocks"
        },
        "hero-title-text": {
            "type": "array",
            "items": {
                "allOf": [
                    {
                        "$ref": "http://bigcontent.io/cms/schema/v1/core#/definitions/content-link"
                    },
                    {
                        "properties": {
                            "contentType": {
                                "enum": [
                                    "https://bitbucket.org/dreamsltd/amplience-templates/raw/master/homepage-hero-text-partial.json"
                                ]
                            }
                        }
                    }
                ]
            },
            "minItems": 0,
            "maxItems": 20,
            "title": "Please-add-hero-title-text-blocks",
            "description": "Please-leave-empty-if-you-do-not-need-this"
        },
        "hero-message-text": {
            "type": "array",
            "items": {
                "allOf": [
                    {
                        "$ref": "http://bigcontent.io/cms/schema/v1/core#/definitions/content-link"
                    },
                    {
                        "properties": {
                            "contentType": {
                                "enum": [
                                    "https://bitbucket.org/dreamsltd/amplience-templates/raw/master/homepage-hero-text-partial.json"
                                ]
                            }
                        }
                    }
                ]
            },
            "minItems": 0,
            "maxItems": 20,
            "title": "Please-add-hero-message-text-blocks",
            "description": "Please-leave-empty-if-you-do-not-need-this"
        },
        "hero-ends-message-text": {
            "type": "array",
            "items": {
                "allOf": [
                    {
                        "$ref": "http://bigcontent.io/cms/schema/v1/core#/definitions/content-link"
                    },
                    {
                        "properties": {
                            "contentType": {
                                "enum": [
                                    "https://bitbucket.org/dreamsltd/amplience-templates/raw/master/homepage-hero-text-partial.json"
                                ]
                            }
                        }
                    }
                ]
            },
            "minItems": 0,
            "maxItems": 20,
            "title": "Please-add-hero-ends-message-text-blocks",
            "description": "Please-leave-empty-if-you-do-not-need-this"
        },
        "hero-cta-text": {
            "type": "string",
            "minLength": 1,
            "title": "Please-enter-cta-text",
            "description": ""
        },
        "hero-cta-text-colour": {
            "type": "string",
            "minLength": 7,
            "maxLength": 7,
            "title": "Please-enter-hero-cta-text-colour",
            "description": "Please-enter-hero-cta-text-colour",
            "errors": {
                "maxLength": "Must-be-7-characters-long",
                "minLength": "Must-be-7-characters-long"
            }
        },
        "hero-cta-button-colour": {
            "type": "string",
            "minLength": 7,
            "maxLength": 7,
            "title": "Please-enter-hero-cta-button-colour",
            "description": "Please-enter-hero-cta-button-colour",
            "errors": {
                "maxLength": "Must-be-7-characters-long",
                "minLength": "Must-be-7-characters-long"
            }
        },
        "hero-cta-url": {
            "type": "string",
            "minLength": 0,
            "maxLength": 255,
            "title": "Please-enter-the-hero-cta-url",
            "description": "Please-enter-the-hero-cta-url"
        }
    },
    "propertyOrder": [
        "content-type",
        "hero-background-colour",
        "hero-image",
        "hero-image-url",
        "hero-divider-text",
        "hero-title-text",
        "hero-message-text",
        "hero-ends-message-text",
        "hero-cta-text",
        "hero-cta-text-colour",
        "hero-cta-button-colour",
        "hero-cta-url"
    ]
}