{
    "$schema": "http://bigcontent.io/cms/schema/v1/schema#",
    "id": "https://bitbucket.org/dreamsltd/amplience-templates/raw/master/homepage-card-row.json",
    "allOf": [
        {
            "$ref": "http://bigcontent.io/cms/schema/v1/core#/definitions/content"
        }
    ],
    "title": "Homepage-Card-Row",
    "description": "Homepage-Block-Row",
    "type": "object",
    "properties": {
        "Homepage-Block": {
            "type": "array",
            "items": {
                "allOf": [
                    {
                        "$ref": "http://bigcontent.io/cms/schema/v1/core#/definitions/content-link"
                    },
                    {
                        "properties": {
                            "contentType": {
                                "enum": [
                                    "https://bitbucket.org/dreamsltd/amplience-templates/raw/master/homepage-card.json"
                                ]
                            }
                        }
                    }
                ]
            },
            "minItems": 2,
            "maxItems": 3,
            "title": "Homepage-Block",
            "description": ""
        },
        "Style": {
            "type": "string",
            "enum": [
                "33-percent",
                "50-percent",
                "100-percent"
            ],
            "title": "Style",
            "description": "Row-Style"
        }
    },
    "propertyOrder": [
        "Homepage-Block",
        "Style"
    ]
}