{
    "$schema": "http://bigcontent.io/cms/schema/v1/schema#",
    "id": "https://bitbucket.org/dreamsltd/amplience-templates/raw/master/homepage-row.json",
    "allOf": [
        {
            "$ref": "http://bigcontent.io/cms/schema/v1/core#/definitions/content"
        }
    ],
    "title": "Homepage-Row",
    "description": "Homepage-row",
    "type": "object",
    "properties": {
        "content-type": {
            "type": "string",
            "enum": [
                "page-row"
            ],
            "title": "Select-content-type",
            "description": ""
        },
        "homepage-blocks": {
            "type": "array",
            "items": {
                "allOf": [
                    {
                        "$ref": "http://bigcontent.io/cms/schema/v1/core#/definitions/content-link"
                    },
                    {
                        "properties": {
                            "contentType": {
                                "enum": [
                                    "https://bitbucket.org/dreamsltd/amplience-templates/raw/master/homepage-block.json"
                                ]
                            }
                        }
                    }
                ]
            },
            "minItems": 1,
            "maxItems": 30,
            "title": "Homepage-blocks",
            "description": ""
        },
        "block-style": {
            "type": "string",
            "enum": [
                "Single",
                "50",
                "30",
                "25",
                "20",
                "16"
            ],
            "title": "Block-Style",
            "description": ""
        }
    },
    "propertyOrder": [
        "content-type",
        "homepage-blocks",
        "block-style"
    ]
}