{
    "$schema": "http://bigcontent.io/cms/schema/v1/schema#",
    "id": "https://bitbucket.org/dreamsltd/amplience-templates/raw/master/inspire-me-category-template.json",
    "allOf": [
        {
            "$ref": "http://bigcontent.io/cms/schema/v1/core#/definitions/content"
        }
    ],
    "title": "Inspire-me-category-template",
    "description": "Inspire-me-category-template",
    "type": "object",
    "properties": {
        "inspire-me-category-row": {
            "type": "array",
            "items": {
                "allOf": [
                    {
                        "$ref": "https://bitbucket.org/dreamsltd/amplience-templates/raw/master/lib/inspire-me-category-row.json#"
                    },
                    {
                        "title": "Please-add-category-row",
                        "description": "Please-add-category-row"
                    }
                ]
            },
            "minItems": 1,
            "maxItems": 2,
            "_interpolate": true,
            "title": "Add-another-category-row",
            "description": "Add-another-category-row"
        }
    },
    "propertyOrder": [
        "inspire-me-category-row"
    ]
}