{
    "$schema": "http://bigcontent.io/cms/schema/v1/schema#",
    "id": "https://bitbucket.org/dreamsltd/amplience-templates/raw/master/privacy-policy-cookies.json",
    "allOf": [
        {
            "$ref": "http://bigcontent.io/cms/schema/v1/core#/definitions/content"
        }
    ],
    "title": "privacy-policy-cookies",
    "description": "privacy-policy-cookies",
    "type": "object",
    "properties": {
        "content-type": {
            "type": "string",
            "enum": [
                "privacy-policy-cookies"
            ],
            "title": "Please-select-content-type",
            "description": ""
        },
        "cookie-name-label": {
            "type": "string",
            "minLength": 0,
            "maxLength": 60,
            "title": "Cookie-name-label",
            "description": "Please-enter-a-cookie-name-label"
        },
        "cookie-name-label-color": {
            "type": "string",
            "enum": [
                "blue",
                "pink"
            ],
            "title": "Cookie-name-label-color",
            "description": "Please-select-a-cookie-name-color"
        },
        "cookie-purpose-label": {
            "type": "string",
            "minLength": 0,
            "maxLength": 6000,
            "title": "Cookie-purpose-label",
            "description": "Please-enter-a-cookie-purpose-label"
        },
        "cookie-purpose-label-color": {
            "type": "string",
            "enum": [
                "blue",
                "pink"
            ],
            "title": "Cookie-purpose-label-color",
            "description": "Please-select-a-cookie-purpose-label-color"
        },
        "cookie-name": {
            "type": "string",
            "minLength": 0,
            "maxLength": 60,
            "title": "Cookie-name",
            "description": "Please-enter-a-cookie-name"
        },
        "cookie-name-color": {
            "type": "string",
            "enum": [
                "blue",
                "pink"
            ],
            "title": "Cookie-name-color",
            "description": "Please-select-a-cookie-name-color"
        },
        "cookie-purpose": {
            "type": "string",
            "minLength": 0,
            "maxLength": 6000,
            "title": "Cookie-purpose",
            "description": "Please-enter-a-cookie-purpose"
        },
        "cookie-purpose-color": {
            "type": "string",
            "enum": [
                "blue",
                "pink"
            ],
            "title": "Cookie-purpose-color",
            "description": "Please-select-a-cookie-purpose-color"
        }
    },
    "propertyOrder": [
        "content-type",
        "cookie-name-label",
        "cookie-name-label-color",
        "cookie-purpose-label",
        "cookie-purpose-label-color",
        "cookie-name",
        "cookie-name-color",
        "cookie-purpose",
        "cookie-purpose-color"
    ]
}