{
    "$schema": "http://bigcontent.io/cms/schema/v1/schema#",
    "id": "https://bitbucket.org/dreamsltd/amplience-templates/raw/master/product-details-card.json",
    "allOf": [
        {
            "$ref": "http://bigcontent.io/cms/schema/v1/core#/definitions/content"
        }
    ],
    "title": "product-details-card",
    "description": "",
    "type": "object",
    "properties": {
        "Product-title": {
            "type": "string",
            "minLength": 6,
            "maxLength": 100,
            "title": "Product-Title",
            "description": ""
        },
        "Text": {
            "allOf": [
                {
                    "$ref": "https://bitbucket.org/dreamsltd/amplience-templates/raw/master/lib/text.json#"
                },
                {
                    "type": "object",
                    "title": "Text",
                    "description": ""
                }
            ]
        },
        "Image": {
            "allOf": [
                {
                    "$ref": "https://bitbucket.org/dreamsltd/amplience-templates/raw/master/lib/dynamic-image.json#"
                },
                {
                    "type": "object",
                    "title": "Dynamic-image",
                    "description": ""
                }
            ]
        },
        "SKU": {
            "type": "string",
            "minLength": 6,
            "maxLength": 10,
            "title": "SKU",
            "description": "Product-single-SKU"
        }
    },
    "propertyOrder": [
        "Product-title",
        "Text",
        "Image",
        "SKU"
    ]
}