{
    "$schema": "http://bigcontent.io/cms/schema/v1/schema#",
    "id": "https://bitbucket.org/dreamsltd/amplience-templates/raw/master/promo-countdown-banner.json",
    "allOf": [
        {
            "$ref": "http://bigcontent.io/cms/schema/v1/core#/definitions/content"
        }
    ],
    "title": "promo-countdown-banner",
    "description": "promo-countdown-banner",
    "type": "object",
    "properties": {
        "content-type": {
            "type": "string",
            "enum": [
                "promo-countdown-banner"
            ],
            "title": "Pease-enter-content-type",
            "description": "Pease-enter-content-type"
        },
        "promo-banner-url": {
            "type": "string",
            "minLength": 1,
            "maxLength": 150,
            "title": "Please-enter-promo-banner-url",
            "description": "Please-enter-promo-banner-url",
            "errors": {
                "maxLength": "Max-char-150",
                "minLength": "Max-char-150"
            }
        },
        "promo-banner-text": {
            "type": "array",
            "items": {
                "allOf": [
                    {
                        "$ref": "https://bitbucket.org/dreamsltd/amplience-templates/raw/master/lib/promo-strip-banner-text-card.json#"
                    },
                    {
                        "title": "Promo-strip-banner-text",
                        "description": "Pease-enter-the-main-message"
                    }
                ]
            },
            "minItems": 1,
            "maxItems": 20,
            "_interpolate": true,
            "title": "Promo-strip-banner-text",
            "description": "The-main-banner-message"
        },
        "promo-banner-cta": {
            "type": "string",
            "minLength": 1,
            "maxLength": 150,
            "title": "Please-enter-promo-banner-cta",
            "description": "SHOP NOW",
            "errors": {
                "maxLength": "Max-char-150",
                "minLength": "Max-char-150"
            }
        },
        "promo-banner-date": {
            "type": "string",
            "title": "Please-enter-ends-date-[YYY-MM-DD]",
            "description": "This-is-the-day-after-the-promo-ends",
            "pattern": "\\d{4}-\\d{2}-\\d{2}(T\\d{2}:\\d{2}:\\d{2}(\\.\\d{3})?)?",
            "errors": {
                "pattern": "Must match date-time format"
            }
        },
        "promo-banner-text-color": {
            "type": "string",
            "minLength": 7,
            "maxLength": 7,
            "title": "Please-add-promo-banner-text-color",
            "description": "Please-add-promo-banner-text-color",
            "errors": {
                "maxLength": "Please-add-promo-banner-text-color-#ffffff",
                "minLength": "Please-add-promo-banner-text-color-#ffffff"
            }
        },
        "promo-banner-background-color": {
            "type": "string",
            "minLength": 7,
            "maxLength": 7,
            "title": "Please-add-promo-banner-background-color",
            "description": "Please-add-promo-banner-background-color",
            "errors": {
                "maxLength": "Please-add-promo-banner-background-color-#b30d00",
                "minLength": "Please-add-promo-banner-background-color-#b30d00"
            }
        },
        "promo-banner-background-image": {
            "type": "string",
            "minLength": 0,
            "maxLength": 245,
            "title": "OPTIONAL-please-enter-full-url-for-banckground-image",
            "description": "OPTIONAL-please-enter-full-url-for-banckground-image",
            "errors": {
                "maxLength": "Max-char-245"
            }
        },
        "desktop-margin-top": {
            "type": "string",
            "enum": [
                "0",
                "10",
                "20",
                "30",
                "40",
                "60"
            ],
            "title": "Margin-top-desktop",
            "description": "Margin-top-desktop"
        },
        "desktop-margin-bottom": {
            "type": "string",
            "enum": [
                "0",
                "10",
                "20",
                "30",
                "40",
                "60"
            ],
            "title": "Margin-bottom-desktop",
            "description": "Margin-bottom-desktop"
        },
        "mobile-margin-top": {
            "type": "string",
            "enum": [
                "0",
                "10",
                "20",
                "30",
                "40",
                "60"
            ],
            "title": "Margin-top-mobile",
            "description": "Margin-top-mobile"
        },
        "mobile-margin-bottom": {
            "type": "string",
            "enum": [
                "0",
                "10",
                "20",
                "30",
                "40",
                "60"
            ],
            "title": "Margin-bottom-mobile",
            "description": "Margin-bottom-mobile"
        }
    },
    "propertyOrder": [
        "content-type",
        "promo-banner-url",
        "promo-banner-text",
        "promo-banner-cta",
        "promo-banner-date",
        "promo-banner-text-color",
        "promo-banner-background-color",
        "promo-banner-background-image",
        "desktop-margin-top",
        "desktop-margin-bottom",
        "mobile-margin-top",
        "mobile-margin-bottom"
    ]
}