{
    "$schema": "http://bigcontent.io/cms/schema/v1/schema#",
    "id": "https://bitbucket.org/dreamsltd/amplience-templates/raw/master/replace-8-landing-page-row.json",
    "allOf": [
        {
            "$ref": "http://bigcontent.io/cms/schema/v1/core#/definitions/content"
        }
    ],
    "title": "replace-8-landing-page-row",
    "description": "replace-8-landing-page-row",
    "type": "object",
    "properties": {
        "content-type": {
            "type": "string",
            "enum": [
                "page-row"
            ],
            "title": "Select-content-type",
            "description": ""
        },
        "page-blocks": {
            "type": "array",
            "items": {
                "allOf": [
                    {
                        "$ref": "http://bigcontent.io/cms/schema/v1/core#/definitions/content-link"
                    },
                    {
                        "properties": {
                            "contentType": {
                                "enum": [
                                    "https://bitbucket.org/dreamsltd/amplience-templates/raw/master/replace-8-landing-page-block.json"
                                ]
                            }
                        }
                    }
                ]
            },
            "minItems": 1,
            "maxItems": 1,
            "title": "Page-block",
            "description": ""
        }
    },
    "propertyOrder": [
        "content-type",
        "page-blocks"
    ]
}