{
    "$schema": "http://bigcontent.io/cms/schema/v1/schema#",
    "id": "https://bitbucket.org/dreamsltd/amplience-templates/raw/master/sleepmatch-cards-partial.json",
    "allOf": [
        {
            "$ref": "http://bigcontent.io/cms/schema/v1/core#/definitions/content"
        }
    ],
    "title": "sleepmatch-cards-partial",
    "description": "sleepmatch-cards-partial",
    "type": "object",
    "properties": {
        "content-type": {
            "type": "string",
            "enum": [
                "sleepmatch-cards-partial"
            ],
            "title": "Please-select-content-type",
            "description": ""
        },
        "card-one-image": {
            "allOf": [
                {
                    "$ref": "https://bitbucket.org/dreamsltd/amplience-templates/raw/master/lib/media-type.json#"
                },
                {
                    "type": "object",
                    "title": "Please-add-first-card-image",
                    "description": "Please-add-first-card-image"
                }
            ]
        },
        "card-one-title": {
            "type": "string",
            "title": "Please-add-title-for-card-one",
            "description": "Please-add-title-for-card-one"
        },
        "card-one-text": {
            "allOf": [
                {
                    "$ref": "https://bitbucket.org/dreamsltd/amplience-templates/raw/master/lib/text.json#"
                },
                {
                    "type": "object",
                    "title": "Please-add-first-card-text",
                    "description": "Please-add-first-card-text"
                }
            ]
        },
        "card-two-image": {
            "allOf": [
                {
                    "$ref": "https://bitbucket.org/dreamsltd/amplience-templates/raw/master/lib/media-type.json#"
                },
                {
                    "type": "object",
                    "title": "Please-add-second-card-image",
                    "description": "Please-add-second-card-image"
                }
            ]
        },
        "card-two-title": {
            "type": "string",
            "title": "Please-add-title-for-card-two",
            "description": "Please-add-title-for-card-two"
        },
        "card-two-text": {
            "allOf": [
                {
                    "$ref": "https://bitbucket.org/dreamsltd/amplience-templates/raw/master/lib/text.json#"
                },
                {
                    "type": "object",
                    "title": "Please-add-left-card-text",
                    "description": "Please-add-left-card-text"
                }
            ]
        }
    },
    "propertyOrder": [
        "content-type",
        "card-one-image",
        "card-one-title",
        "card-one-text",
        "card-two-image",
        "card-two-title",
        "card-two-text"
    ]
}