{
    "$schema": "http://bigcontent.io/cms/schema/v1/schema#",
    "id": "https://bitbucket.org/dreamsltd/amplience-templates/raw/master/sleep-hub-article-slider-item.json",
    "allOf": [
        {
            "$ref": "http://bigcontent.io/cms/schema/v1/core#/definitions/content"
        }
    ],
    "title": "sleep-hub-article-slider-item",
    "description": "sleep-hub-article-slider-item",
    "type": "object",
    "properties": {
        "desktop-size": {
            "type": "string",
            "enum": [
                "100",
                "50",
                "33"
            ],
            "title": "Please-select-desktop-width",
            "description": ""
        },
        "mobile-size": {
            "type": "string",
            "enum": [
                "100",
                "50"
            ],
            "title": "Please-select-mobile-width",
            "description": ""
        },
        "media": {
            "allOf": [
                {
                    "$ref": "https://bitbucket.org/dreamsltd/amplience-templates/raw/master/lib/media-type.json#"
                },
                {
                    "type": "object",
                    "title": "Please-add-creative",
                    "description": ""
                }
            ]
        },
        "title": {
            "allOf": [
                {
                    "$ref": "https://bitbucket.org/dreamsltd/amplience-templates/raw/master/lib/title.json#"
                },
                {
                    "type": "object",
                    "title": "Please-add-title",
                    "description": ""
                }
            ]
        },
        "url": {
            "type": "string",
            "minLength": 1,
            "maxLength": 200,
            "title": "Please-add-url",
            "description": ""
        },
        "text": {
            "allOf": [
                {
                    "$ref": "https://bitbucket.org/dreamsltd/amplience-templates/raw/master/lib/text.json#"
                },
                {
                    "type": "object",
                    "title": "Please-add-text",
                    "description": ""
                }
            ]
        }
    },
    "propertyOrder": [
        "desktop-size",
        "mobile-size",
        "media",
        "title",
        "url",
        "text"
    ]
}