{
    "$schema": "http://bigcontent.io/cms/schema/v1/schema#",
    "id": "https://bitbucket.org/dreamsltd/amplience-templates/raw/master/sleepmatch-top-banner.json",
    "allOf": [
        {
            "$ref": "http://bigcontent.io/cms/schema/v1/core#/definitions/content"
        }
    ],
    "title": "sleepmatch-top-banner",
    "description": "sleepmatch-top-banner",
    "type": "object",
    "properties": {
        "content-type": {
            "type": "string",
            "enum": [
                "sleepmatch-top-banner"
            ],
            "title": "Please-select-content-type",
            "description": ""
        },
        "banner-title": {
            "type": "string",
            "title": "Please-add-banner-title",
            "description": "Please-add-banner-title"
        },
        "banner-subtitle": {
            "type": "string",
            "title": "Please-add-banner-subtitle",
            "description": "Please-add-banner-subtitle"
        },
        "banner-text-colour": {
            "type": "string",
            "minLength": 7,
            "maxLength": 7,
            "title": "Please-add-banner-text-colour",
            "description": "Please-add-banner-text-colour",
            "errors": {
                "maxLength": "Must-be-seven-chars",
                "minLength": "Must-be-seven-chars"
            }
        },
        "banner-image-one": {
            "allOf": [
                {
                    "$ref": "https://bitbucket.org/dreamsltd/amplience-templates/raw/master/lib/media-type.json#"
                },
                {
                    "type": "object",
                    "title": "Please-add-banner-image",
                    "description": "Please-add-banner-image"
                }
            ]
        },
        "banner-image-two": {
            "allOf": [
                {
                    "$ref": "https://bitbucket.org/dreamsltd/amplience-templates/raw/master/lib/media-type.json#"
                },
                {
                    "type": "object",
                    "title": "Please-add-banner-image",
                    "description": "Please-add-banner-image"
                }
            ]
        },
        "banner-image-three": {
            "allOf": [
                {
                    "$ref": "https://bitbucket.org/dreamsltd/amplience-templates/raw/master/lib/media-type.json#"
                },
                {
                    "type": "object",
                    "title": "Please-add-banner-image",
                    "description": "Please-add-banner-image"
                }
            ]
        },
        "banner-image-four": {
            "allOf": [
                {
                    "$ref": "https://bitbucket.org/dreamsltd/amplience-templates/raw/master/lib/media-type.json#"
                },
                {
                    "type": "object",
                    "title": "Please-add-banner-image",
                    "description": "Please-add-banner-image"
                }
            ]
        }
    },
    "propertyOrder": [
        "content-type",
        "banner-title",
        "banner-subtitle",
        "banner-text-colour",
        "banner-image-one",
        "banner-image-two",
        "banner-image-three",
        "banner-image-four"
    ]
}