{
    "$schema": "http://bigcontent.io/cms/schema/v1/schema#",
    "id": "https://bitbucket.org/dreamsltd/amplience-templates/raw/master/sleep-hub-quiz-questions-card.json",
    "allOf": [
        {
            "$ref": "http://bigcontent.io/cms/schema/v1/core#/definitions/content"
        }
    ],
    "title": "sleep-hub-quiz-questions-card",
    "description": "sleep-hub-quiz-questions-card",
    "type": "object",
    "properties": {
        "content-type": {
            "type": "string",
            "enum": [
                "sleep-hub-quiz-questions-card"
            ],
            "title": "Please-select-content-type",
            "description": ""
        },
        "sleep-hub-quiz-question": {
            "type": "array",
            "items": {
                "allOf": [
                    {
                        "$ref": "http://bigcontent.io/cms/schema/v1/core#/definitions/content-link"
                    },
                    {
                        "properties": {
                            "contentType": {
                                "enum": [
                                    "https://bitbucket.org/dreamsltd/amplience-templates/raw/master/text.json"
                                ]
                            }
                        }
                    }
                ]
            },
            "minItems": 3,
            "maxItems": 6,
            "title": "sleep-hub-quiz-question",
            "description": ""
        }
    },
    "propertyOrder": [
        "content-type",
        "sleep-hub-quiz-question"
    ]
}