{
    "$schema": "http://bigcontent.io/cms/schema/v1/schema#",
    "id": "https://bitbucket.org/dreamsltd/amplience-templates/raw/master/sleep-center-landing-page-template.json",
    "allOf": [
        {
            "$ref": "http://bigcontent.io/cms/schema/v1/core#/definitions/content"
        }
    ],
    "title": "Sleep-center-landing-page-template",
    "description": "sleep-center-landing-page-template",
    "type": "object",
    "properties": {
        "category-title": {
            "type": "object",
            "allOf": [
                {
                    "$ref": "http://bigcontent.io/cms/schema/v1/core#/definitions/content-link"
                },
                {
                    "properties": {
                        "contentType": {
                            "enum": [
                                "https://bitbucket.org/dreamsltd/amplience-templates/raw/master/title.json"
                            ]
                        }
                    }
                }
            ],
            "title": "Title",
            "description": ""
        },
        "content-type": {
            "type": "string",
            "enum": [
                "sleep-center-landing-page-row"
            ],
            "title": "Select-content-type",
            "description": ""
        },
        "sleep-center-landing-page-row": {
            "type": "array",
            "items": {
                "allOf": [
                    {
                        "$ref": "http://bigcontent.io/cms/schema/v1/core#/definitions/content-link"
                    },
                    {
                        "properties": {
                            "contentType": {
                                "enum": [
                                    "https://bitbucket.org/dreamsltd/amplience-templates/raw/master/sleep-hub-navigation-wrapper.json",
                                    "https://bitbucket.org/dreamsltd/amplience-templates/raw/master/category-banner-with-background-image.json",
                                    "https://bitbucket.org/dreamsltd/amplience-templates/raw/master/sleep-hub-article-cards-wrapper.json",
                                    "https://bitbucket.org/dreamsltd/amplience-templates/raw/master/sleep-center-article-container.json",
                                    "https://bitbucket.org/dreamsltd/amplience-templates/raw/master/sleep-hub-article-slider-container.json"
                                ]
                            }
                        }
                    }
                ]
            },
            "minItems": 1,
            "maxItems": 10,
            "title": "Please-choose-your-component",
            "description": ""
        }
    },
    "propertyOrder": [
        "category-title",
        "content-type",
        "sleep-center-landing-page-row"
    ]
}