{
    "$schema": "http://bigcontent.io/cms/schema/v1/schema#",
    "id": "https://bitbucket.org/dreamsltd/amplience-templates/raw/master/sleep-when-pregnant-page-card-wrapper.json",
    "allOf": [
        {
            "$ref": "http://bigcontent.io/cms/schema/v1/core#/definitions/content"
        }
    ],
    "title": "sleep-when-pregnant-page-card-wrapper",
    "description": "sleep-when-pregnant-page-card-wrapper",
    "type": "object",
    "properties": {
        "content-type": {
            "type": "string",
            "enum": [
                "sleep-when-pregnant-page-card-wrapper"
            ],
            "title": "Select-content-type",
            "description": ""
        },
        "sleep-when-pregnant-page-card-wrapper": {
            "type": "array",
            "items": {
                "allOf": [
                    {
                        "$ref": "http://bigcontent.io/cms/schema/v1/core#/definitions/content-link"
                    },
                    {
                        "properties": {
                            "contentType": {
                                "enum": [
                                    "https://bitbucket.org/dreamsltd/amplience-templates/raw/master/sleep-when-pregnant-page-card.json",
                                    "https://bitbucket.org/dreamsltd/amplience-templates/raw/master/title.json"
                                ]
                            }
                        }
                    }
                ]
            },
            "minItems": 1,
            "maxItems": 10,
            "title": "Sleep-when-pregnant-page-card-wrapper",
            "description": ""
        }
    },
    "propertyOrder": [
        "content-type",
        "sleep-when-pregnant-page-card-wrapper"
    ]
}