{
    "$schema": "http://bigcontent.io/cms/schema/v1/schema#",
    "id": "https://bitbucket.org/dreamsltd/amplience-templates/raw/master/svg-image.json",
    "allOf": [
        {
            "$ref": "http://bigcontent.io/cms/schema/v1/core#/definitions/content"
        }
    ],
    "title": "SVG-Image",
    "description": "SVG-Image",
    "type": "object",
    "properties": {
        "content-type": {
            "type": "string",
            "enum": [
                "svg-image"
            ],
            "title": "Select-conten-type",
            "description": "Add SVG file"
        },
        "main-svg-image": {
            "type": "string",
            "title": "main-svg-image",
            "description": "Please-enter-svg-code"
        }
    },
    "propertyOrder": [
        "content-type",
        "main-svg-image"
    ]
}