{
    "$schema": "http://bigcontent.io/cms/schema/v1/schema#",
    "id": "https://bitbucket.org/dreamsltd/amplience-templates/raw/master/text-centered.json",
    "allOf": [
        {
            "$ref": "http://bigcontent.io/cms/schema/v1/core#/definitions/content"
        }
    ],
    "title": "Text-centered",
    "description": "text-centered",
    "type": "object",
    "properties": {
        "content-type": {
            "type": "string",
            "enum": [
                "text-centered"
            ],
            "title": "Please-select-content-type",
            "description": ""
        },
        "text-content": {
            "allOf": [
                {
                    "$ref": "https://bitbucket.org/dreamsltd/amplience-templates/raw/master/lib/text.json#"
                },
                {
                    "type": "object",
                    "title": "text-content",
                    "description": ""
                }
            ]
        },
        "desktop-margin-top": {
            "type": "string",
            "enum": [
                "0",
                "10",
                "20",
                "30",
                "40",
                "60"
            ],
            "title": "Desktop-margin-top",
            "description": "Enter-the-desktop-margin-top"
        },
        "desktop-margin-bottom": {
            "type": "string",
            "enum": [
                "0",
                "10",
                "20",
                "30",
                "40",
                "60"
            ],
            "title": "Desktop-margin-bottom",
            "description": "Enter-the-desktop-margin-bottom"
        },
        "mobile-margin-top": {
            "type": "string",
            "enum": [
                "0",
                "10",
                "20",
                "30",
                "40",
                "60"
            ],
            "title": "Mobile-margin-top",
            "description": "Enter-the-mobile-margin-top"
        },
        "mobile-margin-bottom": {
            "type": "string",
            "enum": [
                "0",
                "10",
                "20",
                "30",
                "40",
                "60"
            ],
            "title": "Mobile-margin-bottom",
            "description": "Enter-the-mobile-title-margin-bottom"
        }
    },
    "propertyOrder": [
        "content-type",
        "text-content",
        "desktop-margin-top",
        "desktop-margin-bottom",
        "mobile-margin-top",
        "mobile-margin-bottom"
    ]
}