{
    "$schema": "http://bigcontent.io/cms/schema/v1/schema#",
    "id": "https://bitbucket.org/dreamsltd/amplience-templates/raw/master/text-highlighted.json",
    "allOf": [
        {
            "$ref": "http://bigcontent.io/cms/schema/v1/core#/definitions/content"
        }
    ],
    "title": "Text-highlighted",
    "description": "text-highlighted",
    "type": "object",
    "properties": {
        "content-type": {
            "type": "string",
            "enum": [
                "text-highlighted"
            ],
            "title": "Please-select-content-type",
            "description": ""
        },
        "highlighted-text": {
            "type": "string",
            "minLength": 0,
            "maxLength": 100,
            "title": "Highlighted-text",
            "description": "Please-enter-the-highlighted-text"
        },
        "regular-text": {
            "type": "string",
            "minLength": 0,
            "maxLength": 100,
            "title": "Regular-text",
            "description": "Please-enter-the-regular-text"
        }
    },
    "propertyOrder": [
        "content-type",
        "highlighted-text",
        "regular-text"
    ]
}