{
    "$schema": "http://bigcontent.io/cms/schema/v1/schema#",
    "id": "https://bitbucket.org/dreamsltd/amplience-templates/raw/master/lib/banner-button.json",
    "title": "Banner-Button",
    "description": "Button-for-banner-content",
    "type": "object",
    "properties": {
        "Button-text": {
            "type": "string",
            "minLength": 5,
            "maxLength": 40,
            "title": "Button-Text",
            "description": "",
            "errors": {
                "maxLength": "Please-enter-between-5-and-40-characters",
                "minLength": "Please-enter-between-5-and-40-characters"
            }
        },
        "background-colour-desktop": {
            "type": "string",
            "enum": [
                "white",
                "blue",
                "pink",
                "red"
            ],
            "title": "Please-choose-desktop-background-color",
            "description": ""
        },
        "button-text-colour-desktop": {
            "type": "string",
            "enum": [
                "white",
                "blue",
                "pink",
                "red"
            ],
            "title": "Please-choose-desktop-color",
            "description": ""
        },
        "background-colour-mobile": {
            "type": "string",
            "enum": [
                "white",
                "blue",
                "pink",
                "red"
            ],
            "title": "Please-choose-mobile-background-color",
            "description": ""
        },
        "button-text-colour-mobile": {
            "type": "string",
            "enum": [
                "white",
                "blue",
                "pink",
                "red"
            ],
            "title": "Please-choose-mobile-color",
            "description": ""
        }
    },
    "propertyOrder": [
        "Button-text",
        "background-colour-desktop",
        "button-text-colour-desktop",
        "background-colour-mobile",
        "button-text-colour-mobile"
    ]
}