{
    "$schema": "http://bigcontent.io/cms/schema/v1/schema#",
    "id": "https://bitbucket.org/dreamsltd/amplience-templates/raw/master/lib/brands-promo-banner-text.json",
    "title": "brands-promo-banner-text",
    "description": "brands-promo-banner-text",
    "type": "object",
    "properties": {
        "text": {
            "type": "string",
            "minLength": 1,
            "title": "Please-enter-banner-text",
            "description": "Please-enter-banner-text"
        },
        "font-colour": {
            "type": "string",
            "minLength": 7,
            "maxLength": 7,
            "title": "Please-enter-text-colour",
            "description": "Please-enter-text-colour",
            "errors": {
                "maxLength": "Must be seven char",
                "minLength": "Must be seven char"
            }
        },
        "font-weight": {
            "type": "string",
            "enum": [
                "normal",
                "bold"
            ],
            "title": "Please-choose-font-weight",
            "description": "Please-choose-font-weight"
        },
        "is-ends-message": {
            "type": "boolean",
            "title": "Will-this-text-change-to-ends-tomorrow-tonight?",
            "description": "Will-this-text-change-to-ends-tomorrow-tonight?"
        },
        "hide-mobile": {
            "type": "boolean",
            "title": "Hide-this-on-mobile?",
            "description": "Hide-this-on-mobile - from 0px up to 1019px"
        },
        "hide-desktop": {
            "type": "boolean",
            "title": "Hide-this-on-desktop?",
            "description": "Hide-this-on-desktop - from 1020px up"
        }
    },
    "propertyOrder": [
        "text",
        "font-colour",
        "font-weight",
        "is-ends-message",
        "hide-mobile",
        "hide-desktop"
    ]
}