{
    "$schema": "http://bigcontent.io/cms/schema/v1/schema#",
    "id": "https://bitbucket.org/dreamsltd/amplience-templates/raw/master/lib/inspire-me-homepage-article-block.json",
    "title": "inspire-me-homepage-article-block",
    "description": "inspire-me-homepage-article-block",
    "type": "object",
    "properties": {
        "image": {
            "allOf": [
                {
                    "$ref": "https://bitbucket.org/dreamsltd/amplience-templates/raw/master/lib/media-type.json#"
                },
                {
                    "type": "object",
                    "title": "Please-add-an-image",
                    "description": "Please-add-an-image"
                }
            ]
        },
        "tag": {
            "type": "string",
            "enum": [
                "style",
                "solutions",
                "craftmanship"
            ],
            "title": "Please-select-article-category",
            "description": "Please-select-article-category"
        },
        "primary-title": {
            "type": "string",
            "minLength": 1,
            "maxLength": 100,
            "title": "Please-add-primary-title",
            "description": "",
            "errors": {
                "maxLength": "Please-add-primary-title",
                "minLength": "Please-add-primary-title"
            }
        },
        "secondary-title": {
            "type": "string",
            "minLength": 1,
            "maxLength": 100,
            "title": "Please-add-secondary-title",
            "description": "",
            "errors": {
                "maxLength": "Please-add-secondary-title",
                "minLength": "Please-add-secondary-title"
            }
        },
        "cta": {
            "type": "string",
            "minLength": 1,
            "maxLength": 100,
            "title": "Please-add-cta",
            "description": "",
            "errors": {
                "maxLength": "Please-add-cta",
                "minLength": "Please-add-cta"
            }
        },
        "link": {
            "type": "string",
            "title": "Please-add-link-to-the-article",
            "description": "Please-use-relative-uri"
        },
        "publishing-time": {
            "type": "string",
            "minLength": 1,
            "maxLength": 100,
            "title": "Please-add-publish-time",
            "description": "Format (19 JULY)"
        }
    },
    "propertyOrder": [
        "image",
        "tag",
        "primary-title",
        "secondary-title",
        "cta",
        "link",
        "publishing-time"
    ]
}