{
    "$schema": "http://bigcontent.io/cms/schema/v1/schema#",
    "id": "https://bitbucket.org/dreamsltd/amplience-templates/raw/master/lib/media-object.json",
    "title": "media-object",
    "description": "image-or-video-background",
    "type": "object",
    "properties": {
        "content-type": {
            "type": "string",
            "enum": [
                "dynamic-image"
            ],
            "title": "Please-select-content-type",
            "description": ""
        },
        "Content": {
            "type": "array",
            "items": {
                "allOf": [
                    {
                        "$ref": "http://bigcontent.io/cms/schema/v1/core#/definitions/content-link"
                    },
                    {
                        "properties": {
                            "contentType": {
                                "enum": [
                                    "https://bitbucket.org/dreamsltd/amplience-templates/raw/master/dynamic-image.json",
                                    "https://bitbucket.org/dreamsltd/amplience-templates/raw/master/dynamic-image-with-hotspots.json",
                                    "https://bitbucket.org/dreamsltd/amplience-templates/raw/master/dynamic-image-without-hotspots.json",
                                    "https://bitbucket.org/dreamsltd/amplience-templates/raw/master/dynamic-video-url.json",
                                    "https://bitbucket.org/dreamsltd/amplience-templates/raw/master/svg-image.json"
                                ]
                            }
                        }
                    }
                ]
            },
            "minItems": 1,
            "maxItems": 1,
            "title": "Media-type",
            "description": "Choose video, image or Url"
        }
    },
    "propertyOrder": [
        "content-type",
        "Content"
    ]
}